…
# items we want to compute norms for
my_items <- c("cat_gos", "cat_gat")

norms <- bvq_norms(
  participants = participants,
  responses = responses,
  item = my_items,
  age = c(12, 35)
)
```

    #> # A tibble: 96 × 9
    #>       te item    label   age type     item_dominance  .sum    .n .prop
    #>    <int> <chr>   <chr> <dbl> <chr>    <chr>          <int> <int> <dbl>
    #>  1   173 cat_gat gat      11 produces L2                 0     1 0.4  
    #>  2   173 cat_gat gat      12 produces L1                 0     1 0.4  
    #>  3   173 cat_gat gat      12 produces L2                 0     3 0.286
    #>  4   173 cat_gat gat      13 produces L1                 0     2 0.333
    #>  5   173 cat_gat gat      14 produces L1                 0     2 0.333
    #>  6   173 cat_gat gat      15 produces L1                 0     1 0.4  
    #>  7   173 cat_gat gat      15 produces L2                 0     1 0.4  
    #>  8   173 cat_gat gat      17 produces L1                 0     1 0.4  
    #>  9   173 cat_gat gat      19 produces L2                 0     1 0.4  
    #> 10   173 cat_gat gat      20 produces L2                 1     2 0.5  
    #> # ℹ 86 more rows
…
We can even indicate a specific translation equivalent in the `te`
argument to retrieve its norms, while leaving the argument `item` blank:

``` r
bvq_norms(
  participants = participants,
  responses = responses,
  te = 175,
  age = c(25, 29)
)
#> # A tibble: 24 × 9
#>       te item    label   age type        item_dominance  .sum    .n .prop
#>    <int> <chr>   <chr> <dbl> <chr>       <chr>          <int> <int> <dbl>
#>  1   175 cat_cuc cuc      25 produces    L1                 1     2   0.5
#>  2   175 cat_cuc cuc      26 produces    L1                 1     1   0.6
#>  3   175 cat_cuc cuc      26 produces    L2                 0     1   0.4
#>  4   175 cat_cuc cuc      27 produces    L1                 0     1   0.4
#>  5   175 cat_cuc cuc      29 produces    L1                 1     1   0.6
#>  6   175 cat_cuc cuc      29 produces    L2                 0     1   0.4
#>  7   175 cat_cuc cuc      25 understands L1                 1     2   0.5
#>  8   175 cat_cuc cuc      26 understands L1                 1     1   0.6
#>  9   175 cat_cuc cuc      26 understands L2                 0     1   0.4
#> 10   175 cat_cuc cuc      27 understands L1                 1     1   0.6
#> # ℹ 14 more rows
```
…
