Retrieving raw data • bvq
…
The function bvq_responses() retrieves participants’
responses to the Barcelona Vocabulary Questionnaire (BVQ) using the formr API, and returns them
along participant- and item-level information. This function returns a
tidy data frame in which each row is one participant’s response to an
individual item.

responses <- bvq_responses() 

# select relevant variables
responses %>% 
    select(id, time, item, response, randomisation) %>% 
    drop_na(response) # drop unanswered items

#> # A tibble: 934,992 × 17
#>    id     time code   study        version randomisation date_birth date_started
#>    <chr> <dbl> <chr>  <chr>        <chr>   <chr>         <date>     <date>      
#>  1 59175     1 BL1886 CognatePrim… BL-Loc… C             2021-02-17 2022-10-31  
#>  2 59175     1 BL1886 CognatePrim… BL-Loc… C             2021-02-17 2022-10-31  
#>  3 59175     1 BL1886 CognatePrim… BL-Loc… C             2021-02-17 2022-10-31  
#>  4 59175     1 BL1886 CognatePrim… BL-Loc… C             2021-02-17 2022-10-31  
#>  5 59175     1 BL1886 CognatePrim… BL-Loc… C             2021-02-17 2022-10-31  
#>  6 59175     1 BL1886 CognatePrim… BL-Loc… C             2021-02-17 2022-10-31  
#>  7 59175     1 BL1886 CognatePrim… BL-Loc… C             2021-02-17 2022-10-31  
#>  8 59175     1 BL1886 CognatePrim… BL-Loc… C             2021-02-17 2022-10-31  
#>  9 59175     1 BL1886 CognatePrim… BL-Loc… C             2021-02-17 2022-10-31  
#> 10 59175     1 BL1886 CognatePrim… BL-Loc… C             2021-02-17 2022-10-31  
#> # ℹ 934,982 more rows
#> # ℹ 9 more variables: date_finished <date>, item <chr>, response <int>,
#> #   sex <chr>, doe_catalan <dbl>, doe_spanish <dbl>, doe_others <dbl>,
#> #   edu_parent1 <chr>, edu_parent2 <chr>
…
Additional participant-level properties like language profile
variables can be extracted using the bvq_logs()
function.

logs <- bvq_logs(responses = responses)

logs %>% 
    select(id, time, age, lp, 
           starts_with("doe_"))

#> # A tibble: 591 × 18
#>    id    code    time study  version   age date_birth date_started date_finished
#>    <chr> <chr>  <dbl> <chr>  <chr>   <dbl> <date>     <date>       <date>       
#>  1 59175 BL1886     1 Cogna… BL-Loc…  20.4 2021-02-17 2022-10-31   2022-10-31   
#>  2 59385 BL1885     1 Cogna… BL-Loc…  22.2 2020-12-18 2022-10-26   2022-10-26   
#>  3 58136 BL1877     1 Cogna… BL-Loc…  32.0 2020-02-24 2022-10-24   2022-10-26   
#>  4 58176 BL1884     2 Cogna… BL-Loc…  31.7 2020-03-04 2022-10-25   2022-10-25   
#>  5 58701 BL1871     1 Seman… BL-Loc…  21.7 2020-12-19 2022-10-10   2022-10-11   
#>  6 58088 BL1876     2 Cogna… BL-Loc…  31.9 2020-02-11 2022-10-09   2022-10-09   
#>  7 58265 BL1873     1 Cogna… BL-Loc…  29.3 2020-04-30 2022-10-09   2022-10-09   
#>  8 58298 BL1879     2 Cogna… BL-Loc…  29.4 2020-04-27 2022-10-08   2022-10-08   
#>  9 58139 BL1881     1 Cogna… BL-Loc…  31.4 2020-02-25 2022-10-08   2022-10-08   
#> 10 58420 BL1875     1 Cogna… BL-Loc…  31.4 2020-02-25 2022-10-08   2022-10-08   
#> # ℹ 581 more rows
#> # ℹ 9 more variables: duration <dbl>, dominance <chr>, lp <chr>,
#> #   edu_parent1 <chr>, edu_parent2 <chr>, doe_spanish <dbl>, doe_catalan <dbl>,
#> #   doe_others <dbl>, completed <lgl>

Item-level properties can be consulted in the pool
dataset (See ?pool):

data("pool")
pool
#> # A tibble: 1,590 × 14
#>    item          language    te label xsampa n_lemmas is_multiword subtlex_lemma
#>    <chr>         <chr>    <int> <chr> <chr>     <int> <lgl>        <chr>        
#>  1 cat_pessigol… Catalan      1 (fer… "p@.s…        1 FALSE        pessigolles  
#>  2 cat_abracar   Catalan      2 abra… "@.B4…        1 FALSE        abraçar      
#>  3 cat_obrir     Catalan      3 obrir "u\"B…        1 FALSE        obrir        
#>  4 cat_acabar    Catalan      4 acab… "@.k@…        1 FALSE        acabar       
#>  5 cat_llancar   Catalan      5 llan… "L@n\…        1 FALSE        llançar      
#>  6 cat_apagar    Catalan      6 apag… "@.p@…        1 FALSE        apagar       
#>  7 cat_aprendre  Catalan      7 apre… "@\"p…        1 FALSE        aprendre     
#>  8 cat_esgarrap… Catalan      8 esga… "@z.g…        1 FALSE        esgarrapar   
#>  9 cat_ajudar    Catalan      9 ajud… "@.Zu…        1 FALSE        ajudar       
#> 10 cat_ballar    Catalan     10 ball… "b@\"…        1 FALSE        ballar       
#> # ℹ 1,580 more rows
#> # ℹ 6 more variables: wordbank_lemma <chr>, childes_lemma <chr>,
#> #   semantic_category <chr>, class <chr>, version <list>, include <lgl>
…
"first": only the first response from each participant
is returned (including responses of participant that only responded
once)

"last": only the most recent response from each
participant is returned (including responses of participant that only
responded once)

"only": only responses from participants that filled
the questionnaire more than once are returned.

Setting longitudinal = "only" is especially useful to
perform repeated measures analyses. For example:

#> # A tibble: 128,888 × 8
#>    id     time item           response randomisation date_birth date_started
#>    <chr> <dbl> <chr>             <int> <chr>         <date>     <date>      
#>  1 58088     2 cat_astronauta        2 B             2020-02-11 2022-10-09  
#>  2 58088     2 cat_a                 3 B             2020-02-11 2022-10-09  
#>  3 58088     2 cat_abella            2 B             2020-02-11 2022-10-09  
#>  4 58088     2 cat_ales              2 B             2020-02-11 2022-10-09  
#>  5 58088     2 cat_capo              1 B             2020-02-11 2022-10-09  
#>  6 58088     2 cat_amic              2 B             2020-02-11 2022-10-09  
#>  7 58088     2 cat_abanyar           3 B             2020-02-11 2022-10-09  
#>  8 58088     2 cat_com               2 B             2020-02-11 2022-10-09  
#>  9 58088     2 cat_ara               3 B             2020-02-11 2022-10-09  
#> 10 58088     2 cat_anar2             2 B             2020-02-11 2022-10-09  
#> # ℹ 128,878 more rows
#> # ℹ 1 more variable: date_finished <date>
…
