Word acquisition norms: `bvq_norms()` • bvq
…
my_items <- c("cat_gos", "cat_gat")

norms <- bvq_norms(
    participants = participants,
    responses = responses,
    item = my_items,
    # get data for production
    type = "produces", 
    # get data for participants aged 1 to 45 months
    age = c(1, 45), 
    # get data for bilinguals (exclude monolinguals and others)
    lp = "Bilingual"
)

#> # A tibble: 110 × 13
#>       te item    language   age type     lp        dominance semantic_category
#>    <int> <chr>   <chr>    <dbl> <chr>    <chr>     <chr>     <chr>            
#>  1   173 cat_gat Catalan      7 produces Bilingual Catalan   Animals          
#>  2   173 cat_gat Catalan     10 produces Bilingual Catalan   Animals          
#>  3   173 cat_gat Catalan     11 produces Bilingual Catalan   Animals          
#>  4   173 cat_gat Catalan     12 produces Bilingual Catalan   Animals          
#>  5   173 cat_gat Catalan     13 produces Bilingual Catalan   Animals          
#>  6   173 cat_gat Catalan     14 produces Bilingual Catalan   Animals          
#>  7   173 cat_gat Catalan     15 produces Bilingual Catalan   Animals          
#>  8   173 cat_gat Catalan     16 produces Bilingual Catalan   Animals          
#>  9   173 cat_gat Catalan     17 produces Bilingual Catalan   Animals          
#> 10   173 cat_gat Catalan     18 produces Bilingual Catalan   Animals          
#> # ℹ 100 more rows
#> # ℹ 5 more variables: item_dominance <chr>, label <chr>, .sum <int>, .n <int>,
#> #   .prop <dbl>
…
