Vocabulary sizes: `bvq_vocabulary()` • bvq
…
To compute vocabulary size, we first need to run
bvq_responses() (although it this argument is not provided,
bvq_responses() is run under the hood):

library(bvq)

participants <- bvq_participants()
responses <- bvq_responses(participants = participants)

bvq_vocabulary(participants, responses)

#> # A tibble: 934,992 × 17
#>    id     time code   study        version randomisation date_birth date_started
#>    <chr> <dbl> <chr>  <chr>        <chr>   <chr>         <date>     <date>      
#>  1 59175     1 BL1886 CognatePrim… BL-Loc… C             2021-02-17 2022-10-31  
#>  2 59175     1 BL1886 CognatePrim… BL-Loc… C             2021-02-17 2022-10-31  
#>  3 59175     1 BL1886 CognatePrim… BL-Loc… C             2021-02-17 2022-10-31  
#>  4 59175     1 BL1886 CognatePrim… BL-Loc… C             2021-02-17 2022-10-31  
#>  5 59175     1 BL1886 CognatePrim… BL-Loc… C             2021-02-17 2022-10-31  
#>  6 59175     1 BL1886 CognatePrim… BL-Loc… C             2021-02-17 2022-10-31  
#>  7 59175     1 BL1886 CognatePrim… BL-Loc… C             2021-02-17 2022-10-31  
#>  8 59175     1 BL1886 CognatePrim… BL-Loc… C             2021-02-17 2022-10-31  
#>  9 59175     1 BL1886 CognatePrim… BL-Loc… C             2021-02-17 2022-10-31  
#> 10 59175     1 BL1886 CognatePrim… BL-Loc… C             2021-02-17 2022-10-31  
#> # ℹ 934,982 more rows
#> # ℹ 9 more variables: date_finished <date>, item <chr>, response <int>,
#> #   sex <chr>, doe_catalan <dbl>, doe_spanish <dbl>, doe_others <dbl>,
#> #   edu_parent1 <chr>, edu_parent2 <chr>
…
Proportion (*_prop): proportion of the
items the child was reported to known, from the total of items that were
included in the questionnaire, and caregivers answered to.

Counts (*_count): sum of the total
number of items the child was reported to know.

The scale returned by bvq_vocabulary() can be modified
with the .scale argument, which takes "prop"
for proportions (default), and "count" for counts. Both can
be computed using .scale = c("prop", "count"). For instance
we can get vocabulary sizes as proportions running:

#> # A tibble: 1,172 × 8
#>    id     time type        total_prop l1_prop l2_prop concept_prop te_prop
#>    <chr> <dbl> <chr>            <dbl>   <dbl>   <dbl>        <dbl>   <dbl>
#>  1 59175     1 understands     0.457    0.493  0.418         0.511  0.368 
#>  2 59175     1 produces        0.131    0.179  0.0789        0.186  0.0649
#>  3 59385     1 understands     0.411    0.697  0.146         0.667  0.12  
#>  4 59385     1 produces        0.216    0.358  0.0836        0.355  0.0587
#>  5 58136     1 understands     0.959    0.938  0.982         0.984  0.859 
#>  6 58136     1 produces        0.757    0.729  0.787         0.835  0.619 
#>  7 58176     2 understands     0.920    0.903  0.937         0.969  0.863 
#>  8 58176     2 produces        0.508    0.510  0.506         0.629  0.383 
#>  9 58701     1 understands     0.539    0.613  0.466         0.703  0.371 
#> 10 58701     1 produces        0.0803   0.115  0.0460        0.134  0.0257
#> # ℹ 1,162 more rows

To get vocabulary sizes as counts, we can run this instead:

#> # A tibble: 1,172 × 8
#>    id     time type        total_count l1_count l2_count concept_count te_count
#>    <chr> <dbl> <chr>             <int>    <int>    <int>         <int>    <int>
#>  1 59175     1 understands         325      182      143           189      136
#>  2 59175     1 produces             93       66       27            69       24
#>  3 59385     1 understands         295      241       54           250       45
#>  4 59385     1 produces            155      124       31           133       22
#>  5 58136     1 understands         682      346      336           364      318
#>  6 58136     1 produces            538      269      269           309      229
#>  7 58176     2 understands         641      315      326           339      302
#>  8 58176     2 produces            354      178      176           220      134
#>  9 58701     1 understands         376      214      162           246      130
#> 10 58701     1 produces             56       40       16            47        9
#> # ℹ 1,162 more rows
…
bvq_vocabulary(participants, responses, .by = "lp")

We can also can also preserve information about the items, like the
semantic/functional category of the words
(semantic_category). In this case, the vocabulary sizes
will be computed for each level of the semantic_category
variable:

bvq_vocabulary(participants, responses, .by = "semantic_category")
#> # A tibble: 30,332 × 9
#>    id     time type    semantic_category total_prop l1_prop l2_prop concept_prop
#>    <chr> <dbl> <chr>   <chr>                  <dbl>   <dbl>   <dbl>        <dbl>
#>  1 59175     1 unders… Adventures            0.3      0.3    0.3          0.3   
#>  2 59175     1 produc… Adventures            0        0      0            0     
#>  3 59175     1 unders… Animals               0.629    0.613  0.645        0.645 
#>  4 59175     1 produc… Animals               0.161    0.194  0.129        0.226 
#>  5 59175     1 unders… Parts of animals      0.0455   0      0.0909       0.0909
#>  6 59175     1 produc… Parts of animals      0        0      0            0     
#>  7 59175     1 unders… Parts of things       0.25     0.25   0.25         0.25  
#>  8 59175     1 produc… Parts of things       0        0      0            0     
#>  9 59175     1 unders… Question words        0.125    0.125  0.125        0.125 
#> 10 59175     1 produc… Question words        0        0      0            0     
#> # ℹ 30,322 more rows
#> # ℹ 1 more variable: te_prop <dbl>

Finally, we can preserve more than one variable, including
combinations of participant-level and item-level variables, such as
language profile (lp), age (age) and
grammatical class (class):

bvq_vocabulary(participants, responses, 
               .by = c("age", "lp", "semantic_category"))
#> # A tibble: 30,332 × 11
#>    id     time   age type     lp    semantic_category total_prop l1_prop l2_prop
#>    <chr> <dbl> <dbl> <chr>    <chr> <chr>                  <dbl>   <dbl>   <dbl>
#>  1 59175     1  20.4 underst… Bili… Adventures            0.3      0.3    0.3   
#>  2 59175     1  20.4 produces Bili… Adventures            0        0      0     
#>  3 59175     1  20.4 underst… Bili… Animals               0.629    0.613  0.645 
#>  4 59175     1  20.4 produces Bili… Animals               0.161    0.194  0.129 
#>  5 59175     1  20.4 underst… Bili… Parts of animals      0.0455   0      0.0909
#>  6 59175     1  20.4 produces Bili… Parts of animals      0        0      0     
#>  7 59175     1  20.4 underst… Bili… Parts of things       0.25     0.25   0.25  
#>  8 59175     1  20.4 produces Bili… Parts of things       0        0      0     
#>  9 59175     1  20.4 underst… Bili… Question words        0.125    0.125  0.125 
#> 10 59175     1  20.4 produces Bili… Question words        0        0      0     
#> # ℹ 30,322 more rows
#> # ℹ 2 more variables: concept_prop <dbl>, te_prop <dbl>
…
